<?xml version="1.0" encoding="UTF-8"?>
<svg width="38px" height="30px" viewBox="0 0 38 30" version="1.1" xmlns="http://www.w3.org/2000/svg" xmlns:xlink="http://www.w3.org/1999/xlink">
    <!-- Generator: Sketch 56.2 (81672) - https://sketch.com -->
    <title>Untitled</title>
    <desc>Created with Sketch.</desc>
    <g id="Page-1" stroke="none" stroke-width="1" fill="none" fill-rule="evenodd">
        <g id="category-group-red" fill="#BD2F37" fill-rule="nonzero">
            <g id="Group_3456">
                <path d="M23.741,29.1000105 L0.766,29.1000105 C0.342949882,29.1000105 0,28.7570501 0,28.334 L0,21.442 C0,19.956 5.551,17.501 8.424,16.331 L8.424,14.213 C7.856,13.775 7.024,12.753 6.906,10.491 C6.23308058,9.93500318 5.86234624,9.09380695 5.906,8.222 C5.89300888,7.75165336 6.01479703,7.28740111 6.257,6.884 C6.36520373,6.71173416 6.50458679,6.56115977 6.668,6.44 C6.207,5.348 5.581,3.774 6.368,2.815 C6.75681132,2.36922932 7.34401821,2.14930868 7.93,2.23 C8.791,0.597 11.122,4.54747351e-13 13.02,4.54747351e-13 C15.151,4.54747351e-13 17.826,0.753 18.358,2.878 C18.5974561,4.0906397 18.4334404,5.34832782 17.891,6.459 C18.0400163,6.57692206 18.1675559,6.71968522 18.268,6.881 C18.5012081,7.27987798 18.6179566,7.73613227 18.605,8.198 C18.6506098,9.077026 18.2802181,9.92633417 17.605,10.491 C17.492,12.753 16.655,13.774 16.087,14.213 L16.087,16.331 C18.96,17.501 24.511,19.956 24.511,21.442 L24.511,28.334 C24.511,28.5378508 24.4297506,28.7332945 24.2852314,28.8770629 C24.1407123,29.0208313 23.944848,29.1010645 23.741,29.1000105 L23.741,29.1000105 Z M1.532,27.569 L22.975,27.569 L22.975,21.6 C22.382,20.945 18.985,19.136 15.032,17.555 C14.7416372,17.4383137 14.5512788,17.1569315 14.551,16.844 L14.551,13.781 C14.5510053,13.4554788 14.7567469,13.1655155 15.064,13.058 L15.064,13.058 C15.058,13.058 16.083,12.545 16.083,9.952 C16.083,9.52894988 16.4259499,9.186 16.849,9.186 C16.9918629,8.86746027 17.0680905,8.52307488 17.073,8.174 C17.0910332,7.99256735 17.0454302,7.81050881 16.944,7.659 C16.5112456,7.66008691 16.1538765,7.32120243 16.132,6.889 C16.1556555,6.60948613 16.2392156,6.33834207 16.377,6.094 C16.8531008,5.22540769 17.0272155,4.22328047 16.872,3.245 C16.624,2.25 15.003,1.527 13.02,1.527 C11.037,1.527 9.42,2.25 9.168,3.245 C9.06729728,3.64365907 8.67080604,3.89256746 8.268,3.81 C7.701,3.694 7.542,3.789 7.54,3.79 C7.459,3.932 7.483,4.433 8.128,5.953 C8.28526607,6.24312114 8.38477002,6.56099043 8.421,6.889 C8.42153295,7.09231874 8.34100076,7.28746365 8.19723221,7.43123221 C8.05346365,7.57500076 7.85831874,7.65553295 7.655,7.655 C7.594,7.655 7.546,7.655 7.49,7.841 C7.36918792,8.31224752 7.46329384,8.81280309 7.747,9.208 C7.93836705,9.20759548 8.1209391,9.28831929 8.2494199,9.4301438 C8.37790071,9.57196831 8.44025041,9.76160323 8.421,9.952 C8.421,12.562 9.459,13.065 9.47,13.071 C9.75218822,13.1977875 9.93870769,13.472923 9.952,13.782 L9.952,16.845 C9.9517212,17.1579315 9.76136276,17.4393137 9.471,17.556 C5.518,19.137 2.121,20.946 1.528,21.601 L1.532,27.569 Z" id="Path_80"></path>
            </g>
            <g id="Group_3457" transform="translate(21.423000, 3.404000)">
                <path d="M14.571,25.698 L6.147,25.698 C5.86691445,25.7081249 5.60366084,25.5644763 5.46061339,25.323462 C5.31756595,25.0824478 5.31756595,24.7825522 5.46061339,24.541538 C5.60366084,24.3005237 5.86691445,24.1568751 6.147,24.167 L13.805,24.167 L13.805,18.233 C12.6254837,17.6155924 11.3932729,17.1045696 10.123,16.706 C9.223,16.382 8.277,16.042 7.394,15.688 C7.10345602,15.5715384 6.91300287,15.2900162 6.913,14.977 L6.913,12.677 C6.91254301,12.3336282 7.1412198,12.0321349 7.472,11.94 C7.49,11.932 8.445,11.574 8.445,9.613 C8.44548169,9.26450915 8.68084039,8.96014476 9.018,8.872 C9.24653798,8.36608653 9.27336347,7.79202102 9.093,7.267 C8.9069055,7.27307214 8.72757581,7.19690513 8.60273178,7.05876751 C8.47788774,6.9206299 8.42019281,6.73453357 8.445,6.55 C8.46927951,6.26788206 8.57102146,5.99795446 8.739,5.77 C9.18131776,5.18782471 9.36564824,4.44977992 9.249,3.728 C9.022,3.045 7.688,2.528 6.149,2.528 C4.61,2.528 3.274,3.044 3.049,3.728 C2.92678781,4.09546588 2.54954007,4.31391764 2.17,4.237 C2.00851719,4.18467222 1.83617875,4.17536594 1.67,4.21 C1.73090043,4.75918552 1.88157178,5.29464312 2.116,5.795 C2.23175776,6.03128614 2.30294825,6.28689388 2.326,6.549 C2.326,6.97205012 1.98305012,7.315 1.56,7.315 C1.46594445,7.8401475 1.53142799,8.38143164 1.748,8.869 C2.0876735,8.95548347 2.32531235,9.26148983 2.325,9.612 C2.325,11.573 3.279,11.931 3.319,11.945 C3.63224766,12.0533799 3.84621589,12.3437086 3.857,12.675 L3.857,14.206 C3.857,14.6290501 3.51405012,14.972 3.091,14.972 C2.66794988,14.972 2.325,14.6290501 2.325,14.206 L2.325,13.135 C1.36054613,12.4269294 0.796521944,11.2973919 0.81,10.101 C0.247454665,9.50288031 -0.0421726984,8.69844031 0.01,7.879 C0.000649364852,7.43877517 0.0923303004,7.00226445 0.278,6.603 C0.363645003,6.43475226 0.477646938,6.28252415 0.615,6.153 C0.287,5.286 -0.14,3.994 0.54,3.189 C0.884460328,2.81549829 1.38155301,2.62116012 1.888,2.662 C2.715,1.445 4.624,0.996 6.157,0.996 C7.912,0.996 10.157,1.584 10.712,3.243 C10.9840599,4.26460538 10.8134592,5.35354593 10.242,6.243 C10.3425627,6.35682775 10.4279412,6.48321478 10.496,6.619 C10.9791623,7.78632549 10.7762895,9.12520875 9.969,10.097 C9.98393157,11.2951095 9.41976799,12.4267881 8.454,13.136 L8.454,14.45 C9.177,14.729 9.929,15 10.654,15.26 C13.993,16.46 15.349011,16.991 15.349011,18.035 L15.349011,24.928 C15.3501008,25.1339448 15.2682261,25.3316574 15.1218483,25.4765299 C14.9754706,25.6214024 14.7769225,25.7012293 14.571,25.698 L14.571,25.698 Z" id="Path_81"></path>
            </g>
        </g>
    </g>
</svg>