<svg id="Group_3564" data-name="Group 3564" xmlns="http://www.w3.org/2000/svg" width="94.445" height="90.958" viewBox="0 0 94.445 90.958">
  <g id="Group_3561" data-name="Group 3561" transform="translate(0 35.799)">
    <path id="Path_121" data-name="Path 121" d="M57.54,40.746h0c-1.19,0-1.587-.794-1.984-1.587L49.206,16.143l-7.54,15.476a2.182,2.182,0,0,1-1.984,1.19,2.062,2.062,0,0,1-1.587-.794l-6.349-9.524-4.365,5.556a2.062,2.062,0,0,1-1.587.794H1.984a1.984,1.984,0,1,1,0-3.968H25l5.159-7.143a1.984,1.984,0,0,1,3.175,0l5.952,9.127L47.619,10.19A2.182,2.182,0,0,1,49.6,9a1.707,1.707,0,0,1,1.587,1.587L57.54,33.6l3.571-7.54a2.126,2.126,0,0,1,1.587-1.19H92.461a1.875,1.875,0,0,1,1.984,1.984c0,1.19,0,1.984-1.19,1.984H64.683L59.127,39.556C59.127,40.349,58.333,40.746,57.54,40.746Z" transform="translate(0 -9)" fill="#a6192e"/>
  </g>
  <g id="Group_3562" data-name="Group 3562" transform="translate(3.968 0)">
    <path id="Path_122" data-name="Path 122" d="M6.556,47.682a2.182,2.182,0,0,1-1.984-1.19A51.007,51.007,0,0,1,1,28.635C1,10.381,11.714,1.254,22.032.46c8.333-.794,17.857,3.968,22.619,15.476C49.016,4.031,59.333-.73,67.667.063,77.587.857,88.3,9.19,88.3,26.254a45,45,0,0,1-5.159,20.238,2.05,2.05,0,0,1-2.778,1.19,1.914,1.914,0,0,1-.794-2.778c3.175-6.746,4.762-13.1,4.762-18.651C84.334,11.968,76,4.825,67.27,4.031S48.619,9.19,46.635,23.873a2.034,2.034,0,0,1-3.968,0C40.286,9.19,30.762,3.635,22.429,4.031c-8.73.794-17.46,8.73-17.46,24.6A41.634,41.634,0,0,0,8.54,44.9c.4,1.19,0,1.984-1.19,2.778Z" transform="translate(-1 0.021)" fill="#a6192e"/>
  </g>
  <g id="Group_3563" data-name="Group 3563" transform="translate(16.631 59.573)">
    <path id="Path_123" data-name="Path 123" d="M35.179,46.376a1.458,1.458,0,0,1-1.19-.4A131.992,131.992,0,0,1,4.624,18.2c-.794-.794-.4-1.984.4-2.778a1.851,1.851,0,0,1,2.778.4c9.921,13.492,23.016,23.413,26.984,26.191,3.571-3.175,15.476-13.1,25.4-26.191.794-.794,1.984-1.19,2.778-.4s1.19,1.984.4,2.778c-11.9,15.873-26.587,27.381-27.381,27.778C35.973,46.376,35.576,46.376,35.179,46.376Z" transform="translate(-4.191 -14.991)" fill="#a6192e"/>
  </g>
</svg>
