<?xml version="1.0" encoding="utf-8"?>
<!-- Generator: Adobe Illustrator 24.0.1, SVG Export Plug-In . SVG Version: 6.00 Build 0)  -->
<svg version="1.1" id="Layer_1" xmlns="http://www.w3.org/2000/svg" xmlns:xlink="http://www.w3.org/1999/xlink" x="0px" y="0px"
	 viewBox="0 0 32 32" style="enable-background:new 0 0 32 32;" xml:space="preserve">
<style type="text/css">
	.st0{fill:#A6192E;}
</style>
<g id="Group_3518" transform="translate(-697 -1489)">
	<g id="Group_3516" transform="translate(703 1495.035)">
		<path id="Path_104" class="st0" d="M16,20c-0.1,0-0.3,0-0.4-0.1L10,15.5l-5.6,4.3C4.1,20,3.7,20,3.5,19.7
			c-0.1-0.2-0.2-0.4-0.1-0.6l1.9-7L0.2,7.1c-0.3-0.3-0.3-0.7,0-0.9C0.3,6,0.5,6,0.7,6h6.2l2.5-5.6c0.2-0.3,0.6-0.5,1-0.3
			c0.1,0.1,0.2,0.2,0.3,0.3L13.1,6h6.2C19.7,6,20,6.3,20,6.6c0,0.2-0.1,0.3-0.2,0.5l-5.1,5.1l1.9,7c0.1,0.4-0.1,0.7-0.5,0.8
			C16.1,20,16.1,20,16,20L16,20z M10,14c0.1,0,0.3,0,0.4,0.1l4.4,3.4l-1.5-5.4c-0.1-0.2,0-0.5,0.2-0.6l4.2-4.2h-5.1
			c-0.3,0-0.5-0.2-0.6-0.4L10,2.3L7.9,6.9C7.8,7.1,7.6,7.3,7.3,7.3H2.3l4.2,4.2c0.2,0.2,0.2,0.4,0.2,0.6l-1.5,5.4l4.4-3.4
			C9.7,14,9.9,14,10,14z"/>
	</g>
	<g id="Group_3517" transform="translate(697 1489)">
		<path id="Path_105" class="st0" d="M26,32H6c-3.3,0-6-2.7-6-6V6c0-3.3,2.7-6,6-6h20c3.3,0,6,2.7,6,6v20C32,29.3,29.3,32,26,32z
			 M6,1.3C3.4,1.3,1.3,3.4,1.3,6v20c0,2.6,2.1,4.7,4.7,4.7h20c2.6,0,4.7-2.1,4.7-4.7V6c0-2.6-2.1-4.7-4.7-4.7H6z"/>
	</g>
</g>
</svg>
