<svg xmlns="http://www.w3.org/2000/svg" width="54.847" height="53.704" viewBox="0 0 54.847 53.704">
  <g id="Group_3473" data-name="Group 3473" transform="translate(-193 -3697.5)">
    <g id="Group_3461" data-name="Group 3461" transform="translate(193 3697.5)">
      <path id="Path_82" data-name="Path 82" d="M195.285,3735.207a1.143,1.143,0,0,1-.992-1.71l4.1-7.175A15.891,15.891,0,0,1,193,3714.491c0-9.37,9.228-16.991,20.568-16.991s20.568,7.622,20.568,16.991a1.143,1.143,0,0,1-2.285,0c0-8.108-8.2-14.706-18.282-14.706s-18.282,6.6-18.282,14.706a13.693,13.693,0,0,0,5.286,10.681,1.149,1.149,0,0,1,.277,1.461l-2.943,5.152,8.382-3.352a1.12,1.12,0,0,1,.759-.034,19.865,19.865,0,0,0,3.113.679,1.143,1.143,0,0,1,.978,1.286,1.125,1.125,0,0,1-1.287.979,22.481,22.481,0,0,1-3.081-.643l-11.058,4.424A1.165,1.165,0,0,1,195.285,3735.207Z" transform="translate(-193 -3697.5)" fill="#662d91"/>
    </g>
    <g id="Group_3462" data-name="Group 3462" transform="translate(213.568 3719.21)">
      <path id="Path_83" data-name="Path 83" d="M233.994,3738.994a1.176,1.176,0,0,1-.4-.073l-8.712-3.265a17.032,17.032,0,0,1-15.835-1.468A14.848,14.848,0,0,1,202,3721.854c0-8.051,7.85-14.854,17.14-14.854s17.14,6.8,17.14,14.854a12.412,12.412,0,0,1-4.289,9.431l3.026,6.054a1.141,1.141,0,0,1-1.022,1.655Zm-9.141-5.713a1.151,1.151,0,0,1,.4.073l6.415,2.406-2.125-4.252a1.142,1.142,0,0,1,.309-1.405,10.211,10.211,0,0,0,4.141-8.248c0-6.812-6.8-12.569-14.854-12.569s-14.854,5.757-14.854,12.569a12.586,12.586,0,0,0,6,10.419,14.757,14.757,0,0,0,14.1,1.106A1.162,1.162,0,0,1,224.853,3733.281Z" transform="translate(-202 -3707)" fill="#662d91"/>
    </g>
  </g>
</svg>
