<svg id="Group_3580" data-name="Group 3580" xmlns="http://www.w3.org/2000/svg" width="88.151" height="88.335" viewBox="0 0 88.151 88.335">
  <g id="Group_3565" data-name="Group 3565" transform="translate(44.168 44.352)">
    <path id="Path_124" data-name="Path 124" d="M13.84,56.034c-.368,0-1.1-.368-1.472-.368A4,4,0,0,1,12,53.825l3.681-12.882a1.285,1.285,0,0,1,.368-.736l27.6-27.6a1.779,1.779,0,0,1,2.576,0l9.2,9.2a1.779,1.779,0,0,1,0,2.576l-27.6,27.6c-.368.368-.368.368-.736.368L14.208,56.034Zm5.153-13.618-2.576,9.2,9.2-2.576L51.751,22.908l-6.625-6.625Zm7.729,8.1Z" transform="translate(-12 -12.05)" fill="#a6192e"/>
  </g>
  <g id="Group_3566" data-name="Group 3566" transform="translate(68.815 51.986)">
    <rect id="Rectangle_95" data-name="Rectangle 95" width="3.681" height="12.882" transform="translate(0 2.603) rotate(-45)" fill="#a6192e"/>
  </g>
  <g id="Group_3567" data-name="Group 3567" transform="translate(47.664 71.956)">
    <path id="Path_125" data-name="Path 125" d="M24.176,32.248A2.213,2.213,0,0,1,22.7,31.88l-9.2-9.2A1.822,1.822,0,0,1,16.079,20.1l9.2,9.2a1.779,1.779,0,0,1,0,2.576C25.28,32.248,24.544,32.248,24.176,32.248Z" transform="translate(-12.95 -19.55)" fill="#a6192e"/>
  </g>
  <g id="Group_3579" data-name="Group 3579">
    <g id="Group_3574" data-name="Group 3574">
      <g id="Group_3573" data-name="Group 3573">
        <g id="Group_3568" data-name="Group 3568" transform="translate(0 7.361)">
          <path id="Path_126" data-name="Path 126" d="M36.806,82.974H1.84A1.739,1.739,0,0,1,0,81.134V3.84A1.739,1.739,0,0,1,1.84,2H9.2a1.739,1.739,0,0,1,1.84,1.84A1.739,1.739,0,0,1,9.2,5.681H3.681V79.293H36.806a1.84,1.84,0,1,1,0,3.681Z" transform="translate(0 -2)" fill="#a6192e"/>
        </g>
        <g id="Group_3569" data-name="Group 3569" transform="translate(58.89 7.361)">
          <path id="Path_127" data-name="Path 127" d="M25.2,38.806a1.739,1.739,0,0,1-1.84-1.84V5.681H17.84A1.739,1.739,0,0,1,16,3.84,1.739,1.739,0,0,1,17.84,2H25.2a1.739,1.739,0,0,1,1.84,1.84V36.966A1.739,1.739,0,0,1,25.2,38.806Z" transform="translate(-16 -2)" fill="#a6192e"/>
        </g>
        <g id="Group_3570" data-name="Group 3570" transform="translate(14.723)">
          <path id="Path_128" data-name="Path 128" d="M42.647,22.084H5.84A1.739,1.739,0,0,1,4,20.243V9.2a1.739,1.739,0,0,1,1.84-1.84h9.2A9.19,9.19,0,0,1,24.244,0a9.5,9.5,0,0,1,9.2,7.361h9.2a1.739,1.739,0,0,1,1.84,1.84V20.243A1.739,1.739,0,0,1,42.647,22.084ZM7.681,18.4H40.806V11.042H31.6a1.739,1.739,0,0,1-1.84-1.84,5.661,5.661,0,0,0-5.521-5.521A5.661,5.661,0,0,0,18.723,9.2a1.739,1.739,0,0,1-1.84,1.84h-9.2ZM33.445,9.2Z" transform="translate(-4)" fill="#a6192e"/>
        </g>
        <g id="Group_3571" data-name="Group 3571" transform="translate(51.529 14.723)">
          <path id="Path_129" data-name="Path 129" d="M23.2,37.126a1.739,1.739,0,0,1-1.84-1.84V7.681H15.84A1.739,1.739,0,0,1,14,5.84,1.739,1.739,0,0,1,15.84,4H23.2a1.739,1.739,0,0,1,1.84,1.84V35.285A1.739,1.739,0,0,1,23.2,37.126Z" transform="translate(-14 -4)" fill="#a6192e"/>
        </g>
        <g id="Group_3572" data-name="Group 3572" transform="translate(7.361 14.723)">
          <path id="Path_130" data-name="Path 130" d="M33.285,70.251H3.84A1.739,1.739,0,0,1,2,68.411V5.84A1.739,1.739,0,0,1,3.84,4H11.2a1.739,1.739,0,0,1,1.84,1.84,1.739,1.739,0,0,1-1.84,1.84H5.681v58.89h27.6a1.84,1.84,0,1,1,0,3.681Z" transform="translate(-2 -4)" fill="#a6192e"/>
        </g>
      </g>
    </g>
    <g id="Group_3575" data-name="Group 3575" transform="translate(18.403 33.126)">
      <path id="Path_131" data-name="Path 131" d="M36.285,12.681H6.84A1.739,1.739,0,0,1,5,10.84,1.739,1.739,0,0,1,6.84,9H36.285a1.739,1.739,0,0,1,1.84,1.84A1.739,1.739,0,0,1,36.285,12.681Z" transform="translate(-5 -9)" fill="#a6192e"/>
    </g>
    <g id="Group_3576" data-name="Group 3576" transform="translate(18.403 40.487)">
      <path id="Path_132" data-name="Path 132" d="M36.285,14.681H6.84A1.739,1.739,0,0,1,5,12.84,1.739,1.739,0,0,1,6.84,11H36.285a1.739,1.739,0,0,1,1.84,1.84A1.739,1.739,0,0,1,36.285,14.681Z" transform="translate(-5 -11)" fill="#a6192e"/>
    </g>
    <g id="Group_3577" data-name="Group 3577" transform="translate(18.403 47.848)">
      <path id="Path_133" data-name="Path 133" d="M36.285,16.681H6.84A1.739,1.739,0,0,1,5,14.84,1.739,1.739,0,0,1,6.84,13H36.285a1.739,1.739,0,0,1,1.84,1.84A1.739,1.739,0,0,1,36.285,16.681Z" transform="translate(-5 -13)" fill="#a6192e"/>
    </g>
    <g id="Group_3578" data-name="Group 3578" transform="translate(18.403 55.21)">
      <path id="Path_134" data-name="Path 134" d="M23.4,18.681H6.84A1.739,1.739,0,0,1,5,16.84,1.739,1.739,0,0,1,6.84,15H23.4a1.739,1.739,0,0,1,1.84,1.84A1.739,1.739,0,0,1,23.4,18.681Z" transform="translate(-5 -15)" fill="#a6192e"/>
    </g>
  </g>
</svg>
