<svg xmlns="http://www.w3.org/2000/svg" width="37" height="37" viewBox="0 0 37 37">
  <g id="Group_3525" data-name="Group 3525" transform="translate(-241 -2785)">
    <g id="Group_3519" data-name="Group 3519" transform="translate(254.875 2785)">
      <path id="Path_108" data-name="Path 108" d="M250.771,2788.083a.771.771,0,0,1-.771-.771v-1.542a.771.771,0,1,1,1.542,0v1.542A.771.771,0,0,1,250.771,2788.083Z" transform="translate(-250 -2784.999)" fill="#fff"/>
    </g>
    <g id="Group_3520" data-name="Group 3520" transform="translate(244.083 2788.083)">
      <path id="Path_109" data-name="Path 109" d="M245.313,2790.083a.775.775,0,0,1-.546-.225l-1.542-1.542a.772.772,0,1,1,1.092-1.091l1.542,1.542a.771.771,0,0,1-.546,1.317Z" transform="translate(-243 -2786.999)" fill="#fff"/>
    </g>
    <g id="Group_3521" data-name="Group 3521" transform="translate(264.125 2788.083)">
      <path id="Path_110" data-name="Path 110" d="M256.771,2790.083a.771.771,0,0,1-.546-1.317l1.542-1.542a.772.772,0,0,1,1.091,1.091l-1.542,1.542A.775.775,0,0,1,256.771,2790.083Z" transform="translate(-256 -2786.999)" fill="#fff"/>
    </g>
    <g id="Group_3522" data-name="Group 3522" transform="translate(241 2798.875)">
      <path id="Path_111" data-name="Path 111" d="M243.313,2795.541h-1.542a.771.771,0,0,1,0-1.542h1.542a.771.771,0,0,1,0,1.542Z" transform="translate(-241 -2793.999)" fill="#fff"/>
    </g>
    <g id="Group_3523" data-name="Group 3523" transform="translate(245.625 2797.289)">
      <path id="Path_112" data-name="Path 112" d="M269.438,2817.682H252.479a8.5,8.5,0,0,1-1.428-16.881,9.311,9.311,0,0,1,9.136-7.83,9.179,9.179,0,0,1,8.4,5.4,5.481,5.481,0,0,1,4.391,2.16,5.324,5.324,0,0,1,.848,4.8,6.968,6.968,0,0,1-4.392,12.352Zm-9.25-23.17a7.752,7.752,0,0,0-7.674,7.041.77.77,0,0,1-.7.7,6.96,6.96,0,0,0,.661,13.886h16.958a5.425,5.425,0,0,0,3.037-9.9.769.769,0,0,1-.273-.943,3.854,3.854,0,0,0-4.013-5.356.757.757,0,0,1-.812-.487A7.658,7.658,0,0,0,260.188,2794.512Z" transform="translate(-244 -2792.971)" fill="#fff"/>
    </g>
    <g id="Group_3524" data-name="Group 3524" transform="translate(245.625 2789.625)">
      <path id="Path_113" data-name="Path 113" d="M245.286,2801.811a.772.772,0,0,1-.728-.515,9.851,9.851,0,0,1-.558-3.276,10.014,10.014,0,0,1,17.513-6.644.771.771,0,0,1-1.153,1.024,8.472,8.472,0,0,0-14.819,5.62,8.3,8.3,0,0,0,.472,2.764.772.772,0,0,1-.472.983A.782.782,0,0,1,245.286,2801.811Z" transform="translate(-244 -2787.999)" fill="#fff"/>
    </g>
  </g>
</svg>
