<?xml version="1.0" encoding="utf-8"?>
<!-- Generator: Adobe Illustrator 24.0.1, SVG Export Plug-In . SVG Version: 6.00 Build 0)  -->
<svg version="1.1" id="Layer_1" xmlns="http://www.w3.org/2000/svg" xmlns:xlink="http://www.w3.org/1999/xlink" x="0px" y="0px"
	 viewBox="0 0 79.8 63.2" style="enable-background:new 0 0 79.8 63.2;" xml:space="preserve">
<style type="text/css">
	.st0{fill:#A6192E;}
</style>
<g id="Group_3458" transform="translate(-145 -2212)">
	<g id="Group_3456" transform="translate(145 2212)">
		<path id="Path_80" class="st0" d="M51.5,63.2H1.7c-0.9,0-1.7-0.7-1.7-1.7v-15c0-3.2,12.1-8.6,18.3-11.1v-4.6c-1.2-1-3-3.2-3.3-8.1
			c-1.5-1.2-2.3-3-2.2-4.9c0-1,0.2-2,0.8-2.9c0.2-0.4,0.5-0.7,0.9-1c-1-2.4-2.4-5.8-0.7-7.9c0.8-1,2.1-1.4,3.4-1.3
			C19.1,1.3,24.1,0,28.3,0c4.6,0,10.4,1.6,11.6,6.2c0.5,2.6,0.2,5.4-1,7.8c0.3,0.3,0.6,0.6,0.8,0.9c0.5,0.9,0.8,1.9,0.7,2.9
			c0.1,1.9-0.7,3.8-2.2,5c-0.2,4.9-2.1,7.1-3.3,8.1v4.6c6.2,2.5,18.3,7.9,18.3,11.1v15C53.2,62.4,52.5,63.2,51.5,63.2z M3.3,59.9
			h46.6v-13c-1.3-1.4-8.7-5.4-17.2-8.8c-0.6-0.3-1-0.9-1-1.5v-6.6c0-0.7,0.4-1.3,1.1-1.6l0,0c0,0,2.2-1.1,2.2-6.7
			c0-0.9,0.7-1.7,1.7-1.7c0.3-0.7,0.5-1.4,0.5-2.2c0-0.4-0.1-0.8-0.3-1.1c-0.9,0-1.7-0.7-1.8-1.7c0.1-0.6,0.2-1.2,0.5-1.7
			c0.6-1.4,1.7-3.8,1.1-6.2c-0.5-2.2-4.1-3.7-8.4-3.7S20.4,4.9,19.9,7c-0.2,0.9-1.1,1.4-1.9,1.2c-1.2-0.3-1.6,0-1.6,0
			c-0.2,0.3-0.1,1.4,1.3,4.7c0.3,0.6,0.6,1.3,0.6,2c0,0.9-0.7,1.7-1.7,1.7c0,0,0,0,0,0c-0.1,0-0.2,0-0.4,0.4c-0.3,1-0.1,2.1,0.6,3
			c0.8,0,1.5,0.7,1.5,1.5c0,0.1,0,0.1,0,0.2c0,5.7,2.3,6.8,2.3,6.8c0.6,0.3,1,0.9,1,1.5v6.6c0,0.7-0.4,1.3-1,1.5
			c-8.6,3.4-16,7.4-17.2,8.8L3.3,59.9z"/>
	</g>
	<g id="Group_3457" transform="translate(191.511 2221.56)">
		<path id="Path_81" class="st0" d="M31.6,53.6H13.3c-0.9,0-1.7-0.7-1.7-1.6c0-0.9,0.7-1.7,1.6-1.7c0,0,0.1,0,0.1,0H30V37.4
			c-1-0.8-5-2.3-8-3.3c-2-0.7-4-1.4-5.9-2.2c-0.6-0.3-1-0.9-1-1.5v-5c0-0.7,0.5-1.4,1.2-1.6c0,0,2.1-0.8,2.1-5.1
			c0-0.8,0.5-1.4,1.2-1.6c0.5-0.7,0.6-3,0.2-3.5c-0.8,0-1.4-0.6-1.4-1.3c0-0.1,0-0.2,0-0.2c0.1-0.6,0.3-1.2,0.6-1.7
			c0.6-1.1,1.6-2.8,1.1-4.4c-0.5-1.5-3.4-2.6-6.7-2.6S7.1,4.5,6.6,5.9C6.3,6.7,5.5,7.2,4.7,7C4.3,6.9,4,6.9,3.6,7
			c0.1,1.2,0.5,2.4,1,3.4C4.8,10.9,5,11.5,5,12.1c0,0.9-0.7,1.7-1.7,1.7c-0.2,1.1-0.1,2.3,0.4,3.4C4.5,17.3,5,17.9,5,18.7
			c0,4.3,2.1,5,2.2,5.1c0.7,0.2,1.1,0.9,1.2,1.6v3.3c0,0.9-0.7,1.7-1.6,1.7c-0.9,0-1.7-0.7-1.7-1.6c0,0,0-0.1,0-0.1v-2.3
			c-1.2-0.8-3-2.7-3.3-6.6C0.6,18.8,0,16.9,0,14.9c0-1,0.2-1.9,0.6-2.8c0.2-0.4,0.4-0.7,0.7-1C0.6,9.3-0.3,6.5,1.2,4.8
			C1.9,3.9,3,3.5,4.1,3.6C5.9,1,10,0,13.3,0c3.8,0,8.7,1.3,9.9,4.9c0.9,2.6-0.2,5-1,6.5c0.2,0.2,0.4,0.5,0.6,0.8
			c0.4,0.9,0.6,1.8,0.6,2.8c0,1.9-0.6,3.8-1.7,4.8c-0.3,3.9-2,5.8-3.3,6.6v2.9c1.6,0.6,3.2,1.2,4.8,1.8c7.2,2.6,10.2,3.8,10.2,6v15
			C33.3,52.9,32.6,53.6,31.6,53.6C31.6,53.6,31.6,53.6,31.6,53.6z"/>
	</g>
</g>
</svg>
